<?xml version="1.0" standalone="no"?>
<!DOCTYPE svg PUBLIC "-//W3C//DTD SVG 20010904//EN"
 "http://www.w3.org/TR/2001/REC-SVG-20010904/DTD/svg10.dtd">
<svg version="1.0" xmlns="http://www.w3.org/2000/svg"
 width="1300.000000pt" height="1300.000000pt" viewBox="0 0 1300.000000 1300.000000"
 preserveAspectRatio="xMidYMid meet">
<metadata>
Created by potrace 1.15, written by Peter Selinger 2001-2017
</metadata>
<g transform="translate(0.600000,2500.000000) scale(0.300000,-0.250000)"
fill="#000000" stroke="none">
<path d="M11340 12186 c0 -8 -8 -16 -17 -19 -21 -5 -9 -11 40 -21 35 -8 34
-17 -3 -38 -23 -13 -28 -22 -26 -45 2 -15 4 -38 5 -50 1 -15 7 -23 18 -23 13
0 14 3 5 12 -16 16 -15 45 1 51 10 4 10 6 0 6 -21 2 -14 17 12 29 14 7 28 12
30 12 3 0 5 -27 5 -61 0 -37 4 -58 10 -54 6 3 10 24 10 47 0 39 1 40 27 33 36
-9 35 -8 25 -36 l-9 -23 -16 29 c-19 34 -23 19 -5 -20 15 -33 21 -32 41 10
l17 36 -42 20 -43 19 67 -2 c37 -1 70 1 74 4 3 4 -20 19 -52 33 -44 19 -55 28
-46 37 18 18 15 28 -8 28 -11 0 -25 -9 -32 -19 -12 -19 -12 -19 -36 0 -29 23
-52 25 -52 5z"/>
<path d="M6265 10137 c-27 -13 -79 -36 -115 -53 -119 -54 -145 -70 -164 -105
-14 -26 -35 -41 -85 -64 -127 -56 -262 -219 -301 -363 -6 -24 -19 -51 -30 -62
-10 -10 -36 -74 -59 -142 -147 -454 -147 -795 2 -980 35 -44 120 -104 160
-114 15 -3 27 -7 27 -9 0 -2 -51 -54 -113 -116 -191 -192 -331 -385 -544 -749
-311 -530 -444 -799 -538 -1085 -151 -458 -132 -821 58 -1121 92 -146 237
-281 356 -333 200 -85 424 -63 686 70 188 95 367 228 665 489 374 328 437 368
728 465 l113 37 -18 22 -17 21 23 -21 c22 -20 25 -20 84 -6 79 19 265 21 339
4 32 -7 79 -28 105 -46 45 -31 48 -36 53 -87 5 -52 8 -57 87 -133 l82 -79 -24
-31 c-87 -114 -70 -278 39 -389 236 -240 717 -214 875 48 56 92 53 210 -9 301
-15 23 -31 61 -35 85 -16 99 -95 194 -203 245 -82 39 -201 57 -284 44 -64 -10
-155 -39 -188 -60 -11 -7 -32 8 -86 61 -53 50 -79 69 -99 69 -17 0 -47 17 -82
46 -75 60 -112 78 -219 105 -103 25 -270 30 -372 10 -90 -17 -193 -50 -188
-60 3 -4 -5 -6 -17 -4 -24 5 -244 -102 -355 -172 -97 -61 -254 -180 -350 -264
-188 -165 -314 -272 -389 -329 -422 -321 -724 -394 -962 -232 -127 85 -253
276 -303 457 -33 116 -32 357 0 503 76 340 217 650 569 1250 271 460 475 718
706 894 l78 60 137 23 c346 59 639 218 807 437 96 126 206 386 225 531 4 39
18 96 29 128 12 32 26 94 32 137 9 67 8 93 -7 162 -9 46 -16 100 -15 121 2 40
-16 83 -45 108 -26 22 -289 129 -316 129 -29 0 -78 -32 -94 -62 -10 -19 -10
-26 4 -43 16 -19 16 -19 0 -6 -16 12 -18 10 -18 -23 0 -49 39 -91 115 -122
165 -69 238 -94 256 -89 17 6 19 1 19 -61 0 -66 1 -69 43 -114 l42 -45 -42 39
-42 39 -7 -39 c-3 -22 -20 -74 -36 -116 -23 -61 -35 -79 -53 -84 -19 -5 -25
-16 -35 -67 -18 -93 -107 -305 -160 -382 -112 -162 -344 -309 -599 -378 -107
-29 -128 -32 -276 -32 -147 0 -163 2 -202 22 -103 55 -133 122 -140 305 -6
153 9 263 63 458 7 23 6 24 -12 10 -15 -11 -14 -9 3 10 12 14 37 69 56 123 34
92 34 98 17 107 -18 10 -18 12 0 66 41 119 135 240 235 302 l49 30 35 -24 c20
-13 49 -24 64 -24 39 0 184 64 221 98 17 15 24 19 17 9 -13 -16 -12 -17 13 -8
80 31 107 57 120 116 7 29 6 29 -46 -20 l-53 -50 52 55 c50 54 51 56 40 89
-25 72 -101 96 -182 58z"/>
<path d="M5685 3001 c-49 -12 -73 -29 -104 -74 -39 -57 -51 -106 -51 -207 0
-69 4 -94 23 -130 48 -94 152 -138 258 -107 67 20 109 58 109 99 0 42 -41 60
-73 31 -36 -34 -95 -47 -142 -31 -53 17 -79 68 -77 153 1 79 22 129 64 155 46
28 86 25 132 -10 47 -35 50 -36 75 -11 43 43 -9 111 -99 130 -56 12 -71 12
-115 2z"/>
<path d="M6020 3003 c-36 -15 -39 -34 -40 -259 0 -276 -7 -262 137 -266 l102
-3 43 40 43 40 -35 -38 -35 -38 35 3 c31 3 35 7 38 33 4 53 -7 60 -120 65
l-103 5 -3 63 -3 62 70 0 c95 0 128 33 81 80 -16 16 -33 20 -85 20 l-65 0 0
50 0 50 103 0 c56 0 108 4 116 9 20 13 17 62 -5 78 -18 13 -242 18 -274 6z"/>
<path d="M6418 2994 c-15 -8 -31 -26 -34 -40 -5 -21 1 -33 37 -70 42 -43 44
-44 52 -22 l8 23 25 -28 c13 -15 24 -35 24 -43 0 -22 11 -17 55 23 l40 38 -42
-45 c-51 -55 -52 -53 61 -170 l81 -85 -78 75 -77 75 15 -53 c42 -140 81 -192
142 -192 66 0 73 13 33 57 l-35 38 38 -34 c26 -25 40 -32 48 -24 28 28 36 388
10 456 -14 35 -48 44 -73 19 -18 -18 -20 -33 -19 -184 1 -90 -2 -167 -6 -171
-4 -4 -23 39 -43 96 -45 123 -62 159 -107 214 -49 59 -103 76 -155 47z"/>
<path d="M6910 2990 c-24 -24 -24 -29 -5 -57 12 -17 27 -23 68 -25 l52 -3 6
-210 c3 -115 6 -211 7 -212 1 -2 15 -3 32 -3 19 0 33 7 40 19 5 11 10 83 10
163 0 79 3 167 6 196 l7 52 51 0 c59 0 76 12 76 52 0 41 -28 48 -191 48 -126
0 -141 -2 -159 -20z"/>
<path d="M7347 2998 c-31 -24 -37 -68 -37 -259 0 -143 4 -198 14 -224 l15 -35
143 0 c151 0 168 5 168 44 0 45 -14 51 -124 54 l-104 4 -4 54 c-1 30 -1 59 0
64 2 6 32 10 67 10 84 0 95 5 95 46 0 43 -21 54 -99 54 -56 0 -61 2 -67 25 -3
14 -3 36 0 50 6 24 8 25 102 25 111 0 134 9 134 50 0 19 -7 33 -19 40 -29 15
-263 13 -284 -2z"/>
<path d="M7775 2997 c-59 -27 -60 -32 -63 -260 -2 -115 -1 -220 2 -233 5 -19
13 -24 40 -24 18 0 38 6 44 13 6 7 13 56 14 108 3 87 5 94 24 97 28 4 88 -65
132 -151 35 -67 59 -85 94 -66 34 18 11 108 -48 186 l-25 33 40 38 c80 76 64
200 -33 246 -49 23 -182 31 -221 13z m174 -102 c36 -18 44 -49 22 -77 -15 -18
-29 -21 -87 -22 l-69 -1 -3 44 c-2 24 -1 50 2 57 7 19 98 18 135 -1z"/>
<path d="M6370 2768 l0 -142 50 49 c47 46 50 52 50 99 0 46 -4 54 -42 93 -23
24 -46 43 -50 43 -4 0 -8 -64 -8 -142z"/>
<path d="M6415 2660 c-48 -48 -48 -49 -42 -101 4 -29 13 -59 21 -67 18 -18 65
-19 77 -1 11 16 10 207 -1 214 -3 2 -28 -18 -55 -45z"/>
</g>
</svg>
